{
    "m_SGVersion": 2,
    "m_Type": "UnityEditor.ShaderGraph.GraphData",
    "m_ObjectId": "0b79e4bd8c404b52819b4f704943ede9",
    "m_Properties": [
        {
            "m_Id": "7f214cdf3e36462ab8db71f16a5c1197"
        },
        {
            "m_Id": "09a1aff36b474f8392f06f75faa14f8f"
        },
        {
            "m_Id": "d901f08ab39c49ea93c305919a6910a6"
        },
        {
            "m_Id": "0aa23635f12245fabd2128a30fc92b8a"
        },
        {
            "m_Id": "101d5ade4b634e1eb6639b58992192e6"
        },
        {
            "m_Id": "6c56f1433c2e44a89968e70a67120e3e"
        },
        {
            "m_Id": "b62420bc77cf4d748e7f3291404690ff"
        },
        {
            "m_Id": "d0fa804e404a4fc294bc3247e8da62da"
        },
        {
            "m_Id": "1b15f0adf10e427ebd2727b165a4861a"
        }
    ],
    "m_Keywords": [
        {
            "m_Id": "4fabf3393ebb49f2818bac52f5f33535"
        },
        {
            "m_Id": "1c6d95ce81ae42918a34c3e6776fd54a"
        }
    ],
    "m_Nodes": [
        {
            "m_Id": "60566fa0b2424b1194bf8e1d8214994c"
        },
        {
            "m_Id": "5e524232b4334197ba0778b364655e23"
        },
        {
            "m_Id": "f0bb354d78f043c188c5d7d52c7cb8a0"
        },
        {
            "m_Id": "cb7a11f7da8b4114a4a084b6411d7d56"
        },
        {
            "m_Id": "7caa31c5abdc4024bf94726014755a51"
        },
        {
            "m_Id": "b7f836c63346430190856b902a0ddf51"
        },
        {
            "m_Id": "13b7b18747454e2cac0cf25601c34528"
        },
        {
            "m_Id": "f86dae8bf98145c08fc481a6d7d8383e"
        },
        {
            "m_Id": "489c79defa1c45789d11cc7f5b7a3b41"
        },
        {
            "m_Id": "db5ea85cd0ee4f0f8f82fe8c6d31f390"
        },
        {
            "m_Id": "af3d1f996fbd4862a3caf79050ef1383"
        },
        {
            "m_Id": "b858039404784a33880aa5d626c7ba0a"
        },
        {
            "m_Id": "75df73d95e6b460fae43f042ab88c136"
        },
        {
            "m_Id": "9a8b26f4ad614652ba03a737535b19b5"
        },
        {
            "m_Id": "48e4650701a9486781d643ee8223eb9f"
        },
        {
            "m_Id": "518224cdab3c48e1b9b59ef50b0dc52f"
        },
        {
            "m_Id": "84906a6c801f47f3a396f73b526704bd"
        },
        {
            "m_Id": "81453da085054848b5b39e23a8189d17"
        },
        {
            "m_Id": "b9cbcb46e5b34fca839838028a9c250b"
        },
        {
            "m_Id": "5879d1c4f07f42c98f8993cdddf2bb6f"
        },
        {
            "m_Id": "8dfbd5bfdf864da8a00a8530445c5d24"
        }
    ],
    "m_GroupDatas": [],
    "m_StickyNoteDatas": [],
    "m_Edges": [
        {
            "m_OutputSlot": {
                "m_Node": {
                    "m_Id": "13b7b18747454e2cac0cf25601c34528"
                },
                "m_SlotId": 2
            },
            "m_InputSlot": {
                "m_Node": {
                    "m_Id": "75df73d95e6b460fae43f042ab88c136"
                },
                "m_SlotId": -1288500366
            }
        },
        {
            "m_OutputSlot": {
                "m_Node": {
                    "m_Id": "489c79defa1c45789d11cc7f5b7a3b41"
                },
                "m_SlotId": 0
            },
            "m_InputSlot": {
                "m_Node": {
                    "m_Id": "13b7b18747454e2cac0cf25601c34528"
                },
                "m_SlotId": 0
            }
        },
        {
            "m_OutputSlot": {
                "m_Node": {
                    "m_Id": "489c79defa1c45789d11cc7f5b7a3b41"
                },
                "m_SlotId": 0
            },
            "m_InputSlot": {
                "m_Node": {
                    "m_Id": "b858039404784a33880aa5d626c7ba0a"
                },
                "m_SlotId": 0
            }
        },
        {
            "m_OutputSlot": {
                "m_Node": {
                    "m_Id": "48e4650701a9486781d643ee8223eb9f"
                },
                "m_SlotId": 0
            },
            "m_InputSlot": {
                "m_Node": {
                    "m_Id": "75df73d95e6b460fae43f042ab88c136"
                },
                "m_SlotId": 1236535902
            }
        },
        {
            "m_OutputSlot": {
                "m_Node": {
                    "m_Id": "518224cdab3c48e1b9b59ef50b0dc52f"
                },
                "m_SlotId": 0
            },
            "m_InputSlot": {
                "m_Node": {
                    "m_Id": "75df73d95e6b460fae43f042ab88c136"
                },
                "m_SlotId": -1098225947
            }
        },
        {
            "m_OutputSlot": {
                "m_Node": {
                    "m_Id": "5879d1c4f07f42c98f8993cdddf2bb6f"
                },
                "m_SlotId": 0
            },
            "m_InputSlot": {
                "m_Node": {
                    "m_Id": "84906a6c801f47f3a396f73b526704bd"
                },
                "m_SlotId": -1098225947
            }
        },
        {
            "m_OutputSlot": {
                "m_Node": {
                    "m_Id": "75df73d95e6b460fae43f042ab88c136"
                },
                "m_SlotId": 1
            },
            "m_InputSlot": {
                "m_Node": {
                    "m_Id": "8dfbd5bfdf864da8a00a8530445c5d24"
                },
                "m_SlotId": 0
            }
        },
        {
            "m_OutputSlot": {
                "m_Node": {
                    "m_Id": "7caa31c5abdc4024bf94726014755a51"
                },
                "m_SlotId": 0
            },
            "m_InputSlot": {
                "m_Node": {
                    "m_Id": "db5ea85cd0ee4f0f8f82fe8c6d31f390"
                },
                "m_SlotId": 0
            }
        },
        {
            "m_OutputSlot": {
                "m_Node": {
                    "m_Id": "81453da085054848b5b39e23a8189d17"
                },
                "m_SlotId": 0
            },
            "m_InputSlot": {
                "m_Node": {
                    "m_Id": "84906a6c801f47f3a396f73b526704bd"
                },
                "m_SlotId": 1447713146
            }
        },
        {
            "m_OutputSlot": {
                "m_Node": {
                    "m_Id": "84906a6c801f47f3a396f73b526704bd"
                },
                "m_SlotId": 1
            },
            "m_InputSlot": {
                "m_Node": {
                    "m_Id": "8dfbd5bfdf864da8a00a8530445c5d24"
                },
                "m_SlotId": 1
            }
        },
        {
            "m_OutputSlot": {
                "m_Node": {
                    "m_Id": "8dfbd5bfdf864da8a00a8530445c5d24"
                },
                "m_SlotId": 2
            },
            "m_InputSlot": {
                "m_Node": {
                    "m_Id": "db5ea85cd0ee4f0f8f82fe8c6d31f390"
                },
                "m_SlotId": 3
            }
        },
        {
            "m_OutputSlot": {
                "m_Node": {
                    "m_Id": "9a8b26f4ad614652ba03a737535b19b5"
                },
                "m_SlotId": 0
            },
            "m_InputSlot": {
                "m_Node": {
                    "m_Id": "75df73d95e6b460fae43f042ab88c136"
                },
                "m_SlotId": 1447713146
            }
        },
        {
            "m_OutputSlot": {
                "m_Node": {
                    "m_Id": "af3d1f996fbd4862a3caf79050ef1383"
                },
                "m_SlotId": 0
            },
            "m_InputSlot": {
                "m_Node": {
                    "m_Id": "db5ea85cd0ee4f0f8f82fe8c6d31f390"
                },
                "m_SlotId": 1
            }
        },
        {
            "m_OutputSlot": {
                "m_Node": {
                    "m_Id": "b7f836c63346430190856b902a0ddf51"
                },
                "m_SlotId": 0
            },
            "m_InputSlot": {
                "m_Node": {
                    "m_Id": "7caa31c5abdc4024bf94726014755a51"
                },
                "m_SlotId": 1
            }
        },
        {
            "m_OutputSlot": {
                "m_Node": {
                    "m_Id": "b858039404784a33880aa5d626c7ba0a"
                },
                "m_SlotId": 2
            },
            "m_InputSlot": {
                "m_Node": {
                    "m_Id": "84906a6c801f47f3a396f73b526704bd"
                },
                "m_SlotId": -1288500366
            }
        },
        {
            "m_OutputSlot": {
                "m_Node": {
                    "m_Id": "b9cbcb46e5b34fca839838028a9c250b"
                },
                "m_SlotId": 0
            },
            "m_InputSlot": {
                "m_Node": {
                    "m_Id": "84906a6c801f47f3a396f73b526704bd"
                },
                "m_SlotId": 1236535902
            }
        },
        {
            "m_OutputSlot": {
                "m_Node": {
                    "m_Id": "db5ea85cd0ee4f0f8f82fe8c6d31f390"
                },
                "m_SlotId": 2
            },
            "m_InputSlot": {
                "m_Node": {
                    "m_Id": "cb7a11f7da8b4114a4a084b6411d7d56"
                },
                "m_SlotId": 0
            }
        },
        {
            "m_OutputSlot": {
                "m_Node": {
                    "m_Id": "f86dae8bf98145c08fc481a6d7d8383e"
                },
                "m_SlotId": 0
            },
            "m_InputSlot": {
                "m_Node": {
                    "m_Id": "13b7b18747454e2cac0cf25601c34528"
                },
                "m_SlotId": 1
            }
        },
        {
            "m_OutputSlot": {
                "m_Node": {
                    "m_Id": "f86dae8bf98145c08fc481a6d7d8383e"
                },
                "m_SlotId": 0
            },
            "m_InputSlot": {
                "m_Node": {
                    "m_Id": "b858039404784a33880aa5d626c7ba0a"
                },
                "m_SlotId": 1
            }
        }
    ],
    "m_VertexContext": {
        "m_Position": {
            "x": 1216.8001708984375,
            "y": 115.99999237060547
        },
        "m_Blocks": [
            {
                "m_Id": "60566fa0b2424b1194bf8e1d8214994c"
            },
            {
                "m_Id": "5e524232b4334197ba0778b364655e23"
            },
            {
                "m_Id": "f0bb354d78f043c188c5d7d52c7cb8a0"
            }
        ]
    },
    "m_FragmentContext": {
        "m_Position": {
            "x": 1216.8001708984375,
            "y": 316.0
        },
        "m_Blocks": [
            {
                "m_Id": "cb7a11f7da8b4114a4a084b6411d7d56"
            }
        ]
    },
    "m_PreviewData": {
        "serializedMesh": {
            "m_SerializedMesh": "{\"mesh\":{\"instanceID\":0}}",
            "m_Guid": ""
        }
    },
    "m_Path": "Shader Graphs",
    "m_ConcretePrecision": 0,
    "m_PreviewMode": 2,
    "m_OutputNode": {
        "m_Id": ""
    },
    "m_ActiveTargets": [
        {
            "m_Id": "136290ead64b4444923e09445c30bc96"
        }
    ]
}

{
    "m_SGVersion": 0,
    "m_Type": "UnityEditor.ShaderGraph.Vector4MaterialSlot",
    "m_ObjectId": "045a519101cd4c35b2870fbc4efdfbdd",
    "m_Id": 0,
    "m_DisplayName": "Out",
    "m_SlotType": 1,
    "m_Hidden": false,
    "m_ShaderOutputName": "Out",
    "m_StageCapability": 3,
    "m_Value": {
        "x": 0.0,
        "y": 0.0,
        "z": 0.0,
        "w": 0.0
    },
    "m_DefaultValue": {
        "x": 0.0,
        "y": 0.0,
        "z": 0.0,
        "w": 0.0
    },
    "m_Labels": []
}

{
    "m_SGVersion": 0,
    "m_Type": "UnityEditor.ShaderGraph.Vector1MaterialSlot",
    "m_ObjectId": "04a224ffc4314a06967fd799ca2d933a",
    "m_Id": 2,
    "m_DisplayName": "Out",
    "m_SlotType": 1,
    "m_Hidden": false,
    "m_ShaderOutputName": "Out",
    "m_StageCapability": 3,
    "m_Value": 0.0,
    "m_DefaultValue": 0.0,
    "m_Labels": []
}

{
    "m_SGVersion": 3,
    "m_Type": "UnityEditor.ShaderGraph.Internal.ColorShaderProperty",
    "m_ObjectId": "09a1aff36b474f8392f06f75faa14f8f",
    "m_Guid": {
        "m_GuidSerialized": "91f7acc7-8e6a-431d-b499-5f2a1af1eceb"
    },
    "m_Name": "Color",
    "m_DefaultReferenceName": "Color_09a1aff36b474f8392f06f75faa14f8f",
    "m_OverrideReferenceName": "",
    "m_GeneratePropertyBlock": true,
    "m_Precision": 0,
    "overrideHLSLDeclaration": false,
    "hlslDeclarationOverride": 0,
    "m_Hidden": false,
    "m_Value": {
        "r": 0.0,
        "g": 0.0,
        "b": 0.0,
        "a": 0.0
    },
    "m_ColorMode": 0
}

{
    "m_SGVersion": 1,
    "m_Type": "UnityEditor.ShaderGraph.Internal.Vector1ShaderProperty",
    "m_ObjectId": "0aa23635f12245fabd2128a30fc92b8a",
    "m_Guid": {
        "m_GuidSerialized": "66331386-ed29-4cb1-93f2-1e9dbf74ac36"
    },
    "m_Name": "DepthStrength",
    "m_DefaultReferenceName": "Vector1_0aa23635f12245fabd2128a30fc92b8a",
    "m_OverrideReferenceName": "",
    "m_GeneratePropertyBlock": true,
    "m_Precision": 0,
    "overrideHLSLDeclaration": false,
    "hlslDeclarationOverride": 0,
    "m_Hidden": false,
    "m_Value": 0.0,
    "m_FloatType": 0,
    "m_RangeValues": {
        "x": 0.0,
        "y": 1.0
    }
}

{
    "m_SGVersion": 0,
    "m_Type": "UnityEditor.ShaderGraph.DynamicVectorMaterialSlot",
    "m_ObjectId": "0b90ab23cbc643d59cc1378f9d966928",
    "m_Id": 0,
    "m_DisplayName": "Base",
    "m_SlotType": 0,
    "m_Hidden": false,
    "m_ShaderOutputName": "Base",
    "m_StageCapability": 3,
    "m_Value": {
        "x": 0.0,
        "y": 0.0,
        "z": 0.0,
        "w": 0.0
    },
    "m_DefaultValue": {
        "x": 0.0,
        "y": 0.0,
        "z": 0.0,
        "w": 0.0
    }
}

{
    "m_SGVersion": 1,
    "m_Type": "UnityEditor.ShaderGraph.Internal.Vector1ShaderProperty",
    "m_ObjectId": "101d5ade4b634e1eb6639b58992192e6",
    "m_Guid": {
        "m_GuidSerialized": "52aadaa5-73bb-409d-9f6a-be52c5961dcd"
    },
    "m_Name": "DepthThickness",
    "m_DefaultReferenceName": "Vector1_101d5ade4b634e1eb6639b58992192e6",
    "m_OverrideReferenceName": "",
    "m_GeneratePropertyBlock": true,
    "m_Precision": 0,
    "overrideHLSLDeclaration": false,
    "hlslDeclarationOverride": 0,
    "m_Hidden": false,
    "m_Value": 0.0,
    "m_FloatType": 0,
    "m_RangeValues": {
        "x": 0.0,
        "y": 1.0
    }
}

{
    "m_SGVersion": 0,
    "m_Type": "UnityEditor.Rendering.Universal.ShaderGraph.UniversalTarget",
    "m_ObjectId": "136290ead64b4444923e09445c30bc96",
    "m_ActiveSubTarget": {
        "m_Id": "26d1a083a62240408ad7960d07f78f00"
    },
    "m_SurfaceType": 0,
    "m_AlphaMode": 0,
    "m_TwoSided": false,
    "m_AlphaClip": false,
    "m_CustomEditorGUI": ""
}

{
    "m_SGVersion": 1,
    "m_Type": "UnityEditor.ShaderGraph.CustomFunctionNode",
    "m_ObjectId": "13b7b18747454e2cac0cf25601c34528",
    "m_Group": {
        "m_Id": ""
    },
    "m_Name": "DepthSobel (Custom Function)",
    "m_DrawState": {
        "m_Expanded": true,
        "m_Position": {
            "serializedVersion": "2",
            "x": -788.7999267578125,
            "y": 823.199951171875,
            "width": 223.20001220703126,
            "height": 301.6000061035156
        }
    },
    "m_Slots": [
        {
            "m_Id": "7f4bc80f02f84b6ea174309e058a5766"
        },
        {
            "m_Id": "cf10b936948f4fa68ba0aeaae1161449"
        },
        {
            "m_Id": "1ecf382b19c545ef8d85dec7d7da86bd"
        }
    ],
    "synonyms": [],
    "m_Precision": 0,
    "m_PreviewExpanded": true,
    "m_PreviewMode": 0,
    "m_CustomColors": {
        "m_SerializableColors": []
    },
    "m_SourceType": 0,
    "m_FunctionName": "DepthSobel",
    "m_FunctionSource": "8584c9c920a68f44992cb9c0e26e1688",
    "m_FunctionBody": "Enter function body here..."
}

{
    "m_SGVersion": 1,
    "m_Type": "UnityEditor.ShaderGraph.Internal.Vector1ShaderProperty",
    "m_ObjectId": "1b15f0adf10e427ebd2727b165a4861a",
    "m_Guid": {
        "m_GuidSerialized": "5062de91-44c9-4e35-87b4-8198f7159c83"
    },
    "m_Name": "ColorThreshold",
    "m_DefaultReferenceName": "Vector1_1b15f0adf10e427ebd2727b165a4861a",
    "m_OverrideReferenceName": "",
    "m_GeneratePropertyBlock": true,
    "m_Precision": 0,
    "overrideHLSLDeclaration": false,
    "hlslDeclarationOverride": 0,
    "m_Hidden": false,
    "m_Value": 1.0,
    "m_FloatType": 0,
    "m_RangeValues": {
        "x": 0.0,
        "y": 1.0
    }
}

{
    "m_SGVersion": 0,
    "m_Type": "UnityEditor.ShaderGraph.ShaderKeyword",
    "m_ObjectId": "1c6d95ce81ae42918a34c3e6776fd54a",
    "m_Guid": {
        "m_GuidSerialized": "44cd8154-463d-4014-990f-921aafbbf441"
    },
    "m_Name": "OpaqueTexture",
    "m_DefaultReferenceName": "BOOLEAN_1C6D95CE81AE42918A34C3E6776FD54A_ON",
    "m_OverrideReferenceName": "REQUIRE_OPAQUE_TEXTURE",
    "m_GeneratePropertyBlock": true,
    "m_KeywordType": 0,
    "m_KeywordDefinition": 1,
    "m_KeywordScope": 0,
    "m_Entries": [],
    "m_Value": 1,
    "m_IsEditable": true
}

{
    "m_SGVersion": 0,
    "m_Type": "UnityEditor.ShaderGraph.Vector1MaterialSlot",
    "m_ObjectId": "1ecf382b19c545ef8d85dec7d7da86bd",
    "m_Id": 2,
    "m_DisplayName": "Out",
    "m_SlotType": 1,
    "m_Hidden": false,
    "m_ShaderOutputName": "Out",
    "m_StageCapability": 3,
    "m_Value": 0.0,
    "m_DefaultValue": 0.0,
    "m_Labels": []
}

{
    "m_SGVersion": 0,
    "m_Type": "UnityEditor.ShaderGraph.Vector1MaterialSlot",
    "m_ObjectId": "2598248872bf4c629e9645ad2764cad6",
    "m_Id": 4,
    "m_DisplayName": "R",
    "m_SlotType": 1,
    "m_Hidden": false,
    "m_ShaderOutputName": "R",
    "m_StageCapability": 2,
    "m_Value": 0.0,
    "m_DefaultValue": 0.0,
    "m_Labels": []
}

{
    "m_SGVersion": 0,
    "m_Type": "UnityEditor.ShaderGraph.Vector4MaterialSlot",
    "m_ObjectId": "2612f449f8514484bcbf8f9bfe95e3ed",
    "m_Id": 0,
    "m_DisplayName": "Color",
    "m_SlotType": 1,
    "m_Hidden": false,
    "m_ShaderOutputName": "Out",
    "m_StageCapability": 3,
    "m_Value": {
        "x": 0.0,
        "y": 0.0,
        "z": 0.0,
        "w": 0.0
    },
    "m_DefaultValue": {
        "x": 0.0,
        "y": 0.0,
        "z": 0.0,
        "w": 0.0
    },
    "m_Labels": []
}

{
    "m_SGVersion": 0,
    "m_Type": "UnityEditor.Rendering.Universal.ShaderGraph.UniversalUnlitSubTarget",
    "m_ObjectId": "26d1a083a62240408ad7960d07f78f00"
}

{
    "m_SGVersion": 0,
    "m_Type": "UnityEditor.ShaderGraph.NormalMaterialSlot",
    "m_ObjectId": "272bcb5228764245b2be41e4d33e5187",
    "m_Id": 0,
    "m_DisplayName": "Normal",
    "m_SlotType": 0,
    "m_Hidden": false,
    "m_ShaderOutputName": "Normal",
    "m_StageCapability": 1,
    "m_Value": {
        "x": 0.0,
        "y": 0.0,
        "z": 0.0
    },
    "m_DefaultValue": {
        "x": 0.0,
        "y": 0.0,
        "z": 0.0
    },
    "m_Labels": [],
    "m_Space": 0
}

{
    "m_SGVersion": 0,
    "m_Type": "UnityEditor.ShaderGraph.Vector1MaterialSlot",
    "m_ObjectId": "27732f77fa67437faa8e19d04e71d3fc",
    "m_Id": -1288500366,
    "m_DisplayName": "Sobel",
    "m_SlotType": 0,
    "m_Hidden": false,
    "m_ShaderOutputName": "Vector1_3d7b85ef4377447e8e5804776b903239",
    "m_StageCapability": 3,
    "m_Value": 0.0,
    "m_DefaultValue": 0.0,
    "m_Labels": []
}

{
    "m_SGVersion": 0,
    "m_Type": "UnityEditor.ShaderGraph.Vector1MaterialSlot",
    "m_ObjectId": "31240fd9449c41cdab5acc230f3384c1",
    "m_Id": 1447713146,
    "m_DisplayName": "Strength",
    "m_SlotType": 0,
    "m_Hidden": false,
    "m_ShaderOutputName": "Vector1_7510ac1855e84f619df3eb8ffec1f365",
    "m_StageCapability": 3,
    "m_Value": 0.0,
    "m_DefaultValue": 0.0,
    "m_Labels": []
}

{
    "m_SGVersion": 0,
    "m_Type": "UnityEditor.ShaderGraph.Vector1MaterialSlot",
    "m_ObjectId": "3327d78c21ef46b29d02503db3b37d7e",
    "m_Id": 1,
    "m_DisplayName": "Out",
    "m_SlotType": 1,
    "m_Hidden": false,
    "m_ShaderOutputName": "Out",
    "m_StageCapability": 3,
    "m_Value": 0.0,
    "m_DefaultValue": 0.0,
    "m_Labels": []
}

{
    "m_SGVersion": 0,
    "m_Type": "UnityEditor.ShaderGraph.Vector1MaterialSlot",
    "m_ObjectId": "345bbb3c57c74858baa55a1023f428d7",
    "m_Id": 0,
    "m_DisplayName": "ColorThickness",
    "m_SlotType": 1,
    "m_Hidden": false,
    "m_ShaderOutputName": "Out",
    "m_StageCapability": 3,
    "m_Value": 0.0,
    "m_DefaultValue": 0.0,
    "m_Labels": []
}

{
    "m_SGVersion": 0,
    "m_Type": "UnityEditor.ShaderGraph.UVNode",
    "m_ObjectId": "489c79defa1c45789d11cc7f5b7a3b41",
    "m_Group": {
        "m_Id": ""
    },
    "m_Name": "UV",
    "m_DrawState": {
        "m_Expanded": true,
        "m_Position": {
            "serializedVersion": "2",
            "x": -1243.9998779296875,
            "y": 735.199951171875,
            "width": 207.99998474121095,
            "height": 312.0000305175781
        }
    },
    "m_Slots": [
        {
            "m_Id": "045a519101cd4c35b2870fbc4efdfbdd"
        }
    ],
    "synonyms": [],
    "m_Precision": 0,
    "m_PreviewExpanded": true,
    "m_PreviewMode": 0,
    "m_CustomColors": {
        "m_SerializableColors": []
    },
    "m_OutputChannel": 0
}

{
    "m_SGVersion": 0,
    "m_Type": "UnityEditor.ShaderGraph.PropertyNode",
    "m_ObjectId": "48e4650701a9486781d643ee8223eb9f",
    "m_Group": {
        "m_Id": ""
    },
    "m_Name": "Property",
    "m_DrawState": {
        "m_Expanded": true,
        "m_Position": {
            "serializedVersion": "2",
            "x": -696.800048828125,
            "y": 704.0,
            "width": 164.0,
            "height": 33.5999755859375
        }
    },
    "m_Slots": [
        {
            "m_Id": "b88c8f5777e34edcacb03af57fafe968"
        }
    ],
    "synonyms": [],
    "m_Precision": 0,
    "m_PreviewExpanded": true,
    "m_PreviewMode": 0,
    "m_CustomColors": {
        "m_SerializableColors": []
    },
    "m_Property": {
        "m_Id": "101d5ade4b634e1eb6639b58992192e6"
    }
}

{
    "m_SGVersion": 0,
    "m_Type": "UnityEditor.ShaderGraph.Vector1MaterialSlot",
    "m_ObjectId": "4b046e1506f24c5ba53e2ae585b3d233",
    "m_Id": 1236535902,
    "m_DisplayName": "Thickness",
    "m_SlotType": 0,
    "m_Hidden": false,
    "m_ShaderOutputName": "Vector1_ca4728a4cd9841f890c2cb503ab15840",
    "m_StageCapability": 3,
    "m_Value": 0.0,
    "m_DefaultValue": 0.0,
    "m_Labels": []
}

{
    "m_SGVersion": 0,
    "m_Type": "UnityEditor.ShaderGraph.UVMaterialSlot",
    "m_ObjectId": "4bd3c2f912c2467289529362cc577174",
    "m_Id": 2,
    "m_DisplayName": "UV",
    "m_SlotType": 0,
    "m_Hidden": false,
    "m_ShaderOutputName": "UV",
    "m_StageCapability": 3,
    "m_Value": {
        "x": 0.0,
        "y": 0.0
    },
    "m_DefaultValue": {
        "x": 0.0,
        "y": 0.0
    },
    "m_Labels": [],
    "m_Channel": 0
}

{
    "m_SGVersion": 0,
    "m_Type": "UnityEditor.ShaderGraph.ShaderKeyword",
    "m_ObjectId": "4fabf3393ebb49f2818bac52f5f33535",
    "m_Guid": {
        "m_GuidSerialized": "133f6b9d-0f9f-4c44-9c73-6c7575c6868e"
    },
    "m_Name": "DepthTexture",
    "m_DefaultReferenceName": "BOOLEAN_4FABF3393EBB49F2818BAC52F5F33535_ON",
    "m_OverrideReferenceName": "REQUIRE_DEPTH_TEXTURE",
    "m_GeneratePropertyBlock": true,
    "m_KeywordType": 0,
    "m_KeywordDefinition": 1,
    "m_KeywordScope": 0,
    "m_Entries": [],
    "m_Value": 1,
    "m_IsEditable": true
}

{
    "m_SGVersion": 0,
    "m_Type": "UnityEditor.ShaderGraph.PropertyNode",
    "m_ObjectId": "518224cdab3c48e1b9b59ef50b0dc52f",
    "m_Group": {
        "m_Id": ""
    },
    "m_Name": "Property",
    "m_DrawState": {
        "m_Expanded": true,
        "m_Position": {
            "serializedVersion": "2",
            "x": -696.800048828125,
            "y": 737.5999755859375,
            "width": 164.0,
            "height": 33.60003662109375
        }
    },
    "m_Slots": [
        {
            "m_Id": "5fc5877268454a32b4375ac2bd3611df"
        }
    ],
    "synonyms": [],
    "m_Precision": 0,
    "m_PreviewExpanded": true,
    "m_PreviewMode": 0,
    "m_CustomColors": {
        "m_SerializableColors": []
    },
    "m_Property": {
        "m_Id": "6c56f1433c2e44a89968e70a67120e3e"
    }
}

{
    "m_SGVersion": 0,
    "m_Type": "UnityEditor.ShaderGraph.Vector1MaterialSlot",
    "m_ObjectId": "54496ffc3e3f495aa53812104e605c8b",
    "m_Id": 1,
    "m_DisplayName": "Thickness",
    "m_SlotType": 0,
    "m_Hidden": false,
    "m_ShaderOutputName": "Thickness",
    "m_StageCapability": 3,
    "m_Value": 0.0,
    "m_DefaultValue": 0.0,
    "m_Labels": []
}

{
    "m_SGVersion": 0,
    "m_Type": "UnityEditor.ShaderGraph.PropertyNode",
    "m_ObjectId": "5879d1c4f07f42c98f8993cdddf2bb6f",
    "m_Group": {
        "m_Id": ""
    },
    "m_Name": "Property",
    "m_DrawState": {
        "m_Expanded": true,
        "m_Position": {
            "serializedVersion": "2",
            "x": -501.60003662109377,
            "y": 1309.5999755859375,
            "width": 160.80001831054688,
            "height": 34.4000244140625
        }
    },
    "m_Slots": [
        {
            "m_Id": "cb1960724f4b4ff48e6c4dc987127e5e"
        }
    ],
    "synonyms": [],
    "m_Precision": 0,
    "m_PreviewExpanded": true,
    "m_PreviewMode": 0,
    "m_CustomColors": {
        "m_SerializableColors": []
    },
    "m_Property": {
        "m_Id": "1b15f0adf10e427ebd2727b165a4861a"
    }
}

{
    "m_SGVersion": 0,
    "m_Type": "UnityEditor.ShaderGraph.Vector1MaterialSlot",
    "m_ObjectId": "5d5688f8a1384f1dac48078e880985b2",
    "m_Id": 1447713146,
    "m_DisplayName": "Strength",
    "m_SlotType": 0,
    "m_Hidden": false,
    "m_ShaderOutputName": "Vector1_7510ac1855e84f619df3eb8ffec1f365",
    "m_StageCapability": 3,
    "m_Value": 0.0,
    "m_DefaultValue": 0.0,
    "m_Labels": []
}

{
    "m_SGVersion": 0,
    "m_Type": "UnityEditor.ShaderGraph.BlockNode",
    "m_ObjectId": "5e524232b4334197ba0778b364655e23",
    "m_Group": {
        "m_Id": ""
    },
    "m_Name": "VertexDescription.Normal",
    "m_DrawState": {
        "m_Expanded": true,
        "m_Position": {
            "serializedVersion": "2",
            "x": 0.0,
            "y": 0.0,
            "width": 0.0,
            "height": 0.0
        }
    },
    "m_Slots": [
        {
            "m_Id": "272bcb5228764245b2be41e4d33e5187"
        }
    ],
    "synonyms": [],
    "m_Precision": 0,
    "m_PreviewExpanded": true,
    "m_PreviewMode": 0,
    "m_CustomColors": {
        "m_SerializableColors": []
    },
    "m_SerializedDescriptor": "VertexDescription.Normal"
}

{
    "m_SGVersion": 0,
    "m_Type": "UnityEditor.ShaderGraph.Vector1MaterialSlot",
    "m_ObjectId": "5fc5877268454a32b4375ac2bd3611df",
    "m_Id": 0,
    "m_DisplayName": "DepthThreshold",
    "m_SlotType": 1,
    "m_Hidden": false,
    "m_ShaderOutputName": "Out",
    "m_StageCapability": 3,
    "m_Value": 0.0,
    "m_DefaultValue": 0.0,
    "m_Labels": []
}

{
    "m_SGVersion": 0,
    "m_Type": "UnityEditor.ShaderGraph.BlockNode",
    "m_ObjectId": "60566fa0b2424b1194bf8e1d8214994c",
    "m_Group": {
        "m_Id": ""
    },
    "m_Name": "VertexDescription.Position",
    "m_DrawState": {
        "m_Expanded": true,
        "m_Position": {
            "serializedVersion": "2",
            "x": 0.0,
            "y": 0.0,
            "width": 0.0,
            "height": 0.0
        }
    },
    "m_Slots": [
        {
            "m_Id": "790296e8b94f412ab5dad59f1d2dd53f"
        }
    ],
    "synonyms": [],
    "m_Precision": 0,
    "m_PreviewExpanded": true,
    "m_PreviewMode": 0,
    "m_CustomColors": {
        "m_SerializableColors": []
    },
    "m_SerializedDescriptor": "VertexDescription.Position"
}

{
    "m_SGVersion": 0,
    "m_Type": "UnityEditor.ShaderGraph.Vector1MaterialSlot",
    "m_ObjectId": "6451efe02228468595553f2f9ebb7624",
    "m_Id": 1236535902,
    "m_DisplayName": "Thickness",
    "m_SlotType": 0,
    "m_Hidden": false,
    "m_ShaderOutputName": "Vector1_ca4728a4cd9841f890c2cb503ab15840",
    "m_StageCapability": 3,
    "m_Value": 0.0,
    "m_DefaultValue": 0.0,
    "m_Labels": []
}

{
    "m_SGVersion": 1,
    "m_Type": "UnityEditor.ShaderGraph.Internal.Vector1ShaderProperty",
    "m_ObjectId": "6c56f1433c2e44a89968e70a67120e3e",
    "m_Guid": {
        "m_GuidSerialized": "5e14aee9-4e2c-4485-837f-9a9fdf80b653"
    },
    "m_Name": "DepthThreshold",
    "m_DefaultReferenceName": "Vector1_6c56f1433c2e44a89968e70a67120e3e",
    "m_OverrideReferenceName": "",
    "m_GeneratePropertyBlock": true,
    "m_Precision": 0,
    "overrideHLSLDeclaration": false,
    "hlslDeclarationOverride": 0,
    "m_Hidden": false,
    "m_Value": 0.0,
    "m_FloatType": 0,
    "m_RangeValues": {
        "x": 0.0,
        "y": 1.0
    }
}

{
    "m_SGVersion": 0,
    "m_Type": "UnityEditor.ShaderGraph.Vector1MaterialSlot",
    "m_ObjectId": "6c7c20717fb34a97a56a1f78dcc033f8",
    "m_Id": 5,
    "m_DisplayName": "G",
    "m_SlotType": 1,
    "m_Hidden": false,
    "m_ShaderOutputName": "G",
    "m_StageCapability": 2,
    "m_Value": 0.0,
    "m_DefaultValue": 0.0,
    "m_Labels": []
}

{
    "m_SGVersion": 0,
    "m_Type": "UnityEditor.ShaderGraph.SubGraphNode",
    "m_ObjectId": "75df73d95e6b460fae43f042ab88c136",
    "m_Group": {
        "m_Id": ""
    },
    "m_Name": "FineTuneEdgeDetection",
    "m_DrawState": {
        "m_Expanded": true,
        "m_Position": {
            "serializedVersion": "2",
            "x": -440.800048828125,
            "y": 631.2000122070313,
            "width": 251.99996948242188,
            "height": 349.5999755859375
        }
    },
    "m_Slots": [
        {
            "m_Id": "27732f77fa67437faa8e19d04e71d3fc"
        },
        {
            "m_Id": "5d5688f8a1384f1dac48078e880985b2"
        },
        {
            "m_Id": "6451efe02228468595553f2f9ebb7624"
        },
        {
            "m_Id": "a497eb96bf7847a891cb76be57506578"
        },
        {
            "m_Id": "3327d78c21ef46b29d02503db3b37d7e"
        }
    ],
    "synonyms": [],
    "m_Precision": 0,
    "m_PreviewExpanded": true,
    "m_PreviewMode": 0,
    "m_CustomColors": {
        "m_SerializableColors": []
    },
    "m_SerializedSubGraph": "{\n    \"subGraph\": {\n        \"fileID\": -5475051401550479605,\n        \"guid\": \"14d5baaba8ce19d49822e76698cf09d9\",\n        \"type\": 3\n    }\n}",
    "m_PropertyGuids": [
        "535e2052-22d4-4660-9c62-cf24f74cffd7",
        "d6964b56-0ea5-40c0-88a0-6b02915df9e4",
        "1bb840db-a80c-4a17-b1c1-fa59f044cd92",
        "b6121930-1a58-404c-9cc2-facdc9795806"
    ],
    "m_PropertyIds": [
        -1098225947,
        -1288500366,
        1236535902,
        1447713146
    ]
}

{
    "m_SGVersion": 0,
    "m_Type": "UnityEditor.ShaderGraph.PositionMaterialSlot",
    "m_ObjectId": "790296e8b94f412ab5dad59f1d2dd53f",
    "m_Id": 0,
    "m_DisplayName": "Position",
    "m_SlotType": 0,
    "m_Hidden": false,
    "m_ShaderOutputName": "Position",
    "m_StageCapability": 1,
    "m_Value": {
        "x": 0.0,
        "y": 0.0,
        "z": 0.0
    },
    "m_DefaultValue": {
        "x": 0.0,
        "y": 0.0,
        "z": 0.0
    },
    "m_Labels": [],
    "m_Space": 0
}

{
    "m_SGVersion": 0,
    "m_Type": "UnityEditor.ShaderGraph.TangentMaterialSlot",
    "m_ObjectId": "7a9906380e9044f7ae6f059af8ef3b97",
    "m_Id": 0,
    "m_DisplayName": "Tangent",
    "m_SlotType": 0,
    "m_Hidden": false,
    "m_ShaderOutputName": "Tangent",
    "m_StageCapability": 1,
    "m_Value": {
        "x": 0.0,
        "y": 0.0,
        "z": 0.0
    },
    "m_DefaultValue": {
        "x": 0.0,
        "y": 0.0,
        "z": 0.0
    },
    "m_Labels": [],
    "m_Space": 0
}

{
    "m_SGVersion": 0,
    "m_Type": "UnityEditor.ShaderGraph.SampleTexture2DNode",
    "m_ObjectId": "7caa31c5abdc4024bf94726014755a51",
    "m_Group": {
        "m_Id": ""
    },
    "m_Name": "Sample Texture 2D",
    "m_DrawState": {
        "m_Expanded": true,
        "m_Position": {
            "serializedVersion": "2",
            "x": 358.4000244140625,
            "y": 18.399988174438478,
            "width": 208.00003051757813,
            "height": 434.3999938964844
        }
    },
    "m_Slots": [
        {
            "m_Id": "92b9c5357ebf404e8261ee113a95ba94"
        },
        {
            "m_Id": "2598248872bf4c629e9645ad2764cad6"
        },
        {
            "m_Id": "6c7c20717fb34a97a56a1f78dcc033f8"
        },
        {
            "m_Id": "9bb0e581926e461eaf303770ed05520b"
        },
        {
            "m_Id": "b2cfaea73a9c4fdf9096dca39119ebbe"
        },
        {
            "m_Id": "d8ca4e1d46b74511abbf045be4d1de74"
        },
        {
            "m_Id": "4bd3c2f912c2467289529362cc577174"
        },
        {
            "m_Id": "fa56bc74f21f4daa82c8defd0685d3ea"
        }
    ],
    "synonyms": [],
    "m_Precision": 0,
    "m_PreviewExpanded": true,
    "m_PreviewMode": 0,
    "m_CustomColors": {
        "m_SerializableColors": []
    },
    "m_TextureType": 0,
    "m_NormalMapSpace": 0
}

{
    "m_SGVersion": 0,
    "m_Type": "UnityEditor.ShaderGraph.DynamicVectorMaterialSlot",
    "m_ObjectId": "7ea81361026e44d4bebcc6185234614a",
    "m_Id": 1,
    "m_DisplayName": "Blend",
    "m_SlotType": 0,
    "m_Hidden": false,
    "m_ShaderOutputName": "Blend",
    "m_StageCapability": 3,
    "m_Value": {
        "x": 0.0,
        "y": 0.0,
        "z": 0.0,
        "w": 0.0
    },
    "m_DefaultValue": {
        "x": 0.0,
        "y": 0.0,
        "z": 0.0,
        "w": 0.0
    }
}

{
    "m_SGVersion": 0,
    "m_Type": "UnityEditor.ShaderGraph.Internal.Texture2DShaderProperty",
    "m_ObjectId": "7f214cdf3e36462ab8db71f16a5c1197",
    "m_Guid": {
        "m_GuidSerialized": "a6723ebf-3129-4fe6-9165-4a991d4389a3"
    },
    "m_Name": "Main Texture",
    "m_DefaultReferenceName": "Texture2D_7f214cdf3e36462ab8db71f16a5c1197",
    "m_OverrideReferenceName": "_MainTex",
    "m_GeneratePropertyBlock": true,
    "m_Precision": 0,
    "overrideHLSLDeclaration": false,
    "hlslDeclarationOverride": 0,
    "m_Hidden": false,
    "m_Value": {
        "m_SerializedTexture": "{\"texture\":{\"instanceID\":0}}",
        "m_Guid": ""
    },
    "m_Modifiable": true,
    "m_DefaultType": 0
}

{
    "m_SGVersion": 0,
    "m_Type": "UnityEditor.ShaderGraph.Vector2MaterialSlot",
    "m_ObjectId": "7f4bc80f02f84b6ea174309e058a5766",
    "m_Id": 0,
    "m_DisplayName": "UV",
    "m_SlotType": 0,
    "m_Hidden": false,
    "m_ShaderOutputName": "UV",
    "m_StageCapability": 3,
    "m_Value": {
        "x": 0.0,
        "y": 0.0
    },
    "m_DefaultValue": {
        "x": 0.0,
        "y": 0.0
    },
    "m_Labels": []
}

{
    "m_SGVersion": 0,
    "m_Type": "UnityEditor.ShaderGraph.PropertyNode",
    "m_ObjectId": "81453da085054848b5b39e23a8189d17",
    "m_Group": {
        "m_Id": ""
    },
    "m_Name": "Property",
    "m_DrawState": {
        "m_Expanded": true,
        "m_Position": {
            "serializedVersion": "2",
            "x": -501.60003662109377,
            "y": 1242.4000244140625,
            "width": 151.20001220703126,
            "height": 34.4000244140625
        }
    },
    "m_Slots": [
        {
            "m_Id": "bb55899b92394ae78d2e3277787e739a"
        }
    ],
    "synonyms": [],
    "m_Precision": 0,
    "m_PreviewExpanded": true,
    "m_PreviewMode": 0,
    "m_CustomColors": {
        "m_SerializableColors": []
    },
    "m_Property": {
        "m_Id": "b62420bc77cf4d748e7f3291404690ff"
    }
}

{
    "m_SGVersion": 0,
    "m_Type": "UnityEditor.ShaderGraph.SubGraphNode",
    "m_ObjectId": "84906a6c801f47f3a396f73b526704bd",
    "m_Group": {
        "m_Id": ""
    },
    "m_Name": "FineTuneEdgeDetection",
    "m_DrawState": {
        "m_Expanded": true,
        "m_Position": {
            "serializedVersion": "2",
            "x": -254.40008544921876,
            "y": 1143.199951171875,
            "width": 208.0,
            "height": 349.60009765625
        }
    },
    "m_Slots": [
        {
            "m_Id": "876e2117e21941d2926dabb1331aac69"
        },
        {
            "m_Id": "31240fd9449c41cdab5acc230f3384c1"
        },
        {
            "m_Id": "4b046e1506f24c5ba53e2ae585b3d233"
        },
        {
            "m_Id": "c239022cd9aa4bbca464bbb2f72b4c28"
        },
        {
            "m_Id": "e285c36f9bf6423c9d292775659747d6"
        }
    ],
    "synonyms": [],
    "m_Precision": 0,
    "m_PreviewExpanded": true,
    "m_PreviewMode": 0,
    "m_CustomColors": {
        "m_SerializableColors": []
    },
    "m_SerializedSubGraph": "{\n    \"subGraph\": {\n        \"fileID\": -5475051401550479605,\n        \"guid\": \"14d5baaba8ce19d49822e76698cf09d9\",\n        \"type\": 3\n    }\n}",
    "m_PropertyGuids": [
        "535e2052-22d4-4660-9c62-cf24f74cffd7",
        "d6964b56-0ea5-40c0-88a0-6b02915df9e4",
        "1bb840db-a80c-4a17-b1c1-fa59f044cd92",
        "b6121930-1a58-404c-9cc2-facdc9795806"
    ],
    "m_PropertyIds": [
        -1098225947,
        -1288500366,
        1236535902,
        1447713146
    ]
}

{
    "m_SGVersion": 0,
    "m_Type": "UnityEditor.ShaderGraph.DynamicVectorMaterialSlot",
    "m_ObjectId": "8491a8379f6f4f77af3ddb291f5b4bdd",
    "m_Id": 2,
    "m_DisplayName": "Out",
    "m_SlotType": 1,
    "m_Hidden": false,
    "m_ShaderOutputName": "Out",
    "m_StageCapability": 3,
    "m_Value": {
        "x": 0.0,
        "y": 0.0,
        "z": 0.0,
        "w": 0.0
    },
    "m_DefaultValue": {
        "x": 0.0,
        "y": 0.0,
        "z": 0.0,
        "w": 0.0
    }
}

{
    "m_SGVersion": 0,
    "m_Type": "UnityEditor.ShaderGraph.Vector1MaterialSlot",
    "m_ObjectId": "876e2117e21941d2926dabb1331aac69",
    "m_Id": -1288500366,
    "m_DisplayName": "Sobel",
    "m_SlotType": 0,
    "m_Hidden": false,
    "m_ShaderOutputName": "Vector1_3d7b85ef4377447e8e5804776b903239",
    "m_StageCapability": 3,
    "m_Value": 0.0,
    "m_DefaultValue": 0.0,
    "m_Labels": []
}

{
    "m_SGVersion": 0,
    "m_Type": "UnityEditor.ShaderGraph.Vector1MaterialSlot",
    "m_ObjectId": "880d541cc6fd4169b30f72ed461dbcb9",
    "m_Id": 0,
    "m_DisplayName": "DepthStrength",
    "m_SlotType": 1,
    "m_Hidden": false,
    "m_ShaderOutputName": "Out",
    "m_StageCapability": 3,
    "m_Value": 0.0,
    "m_DefaultValue": 0.0,
    "m_Labels": []
}

{
    "m_SGVersion": 0,
    "m_Type": "UnityEditor.ShaderGraph.ColorRGBMaterialSlot",
    "m_ObjectId": "88b4979621714c3093e1b0fd2e021e8f",
    "m_Id": 0,
    "m_DisplayName": "Base Color",
    "m_SlotType": 0,
    "m_Hidden": false,
    "m_ShaderOutputName": "BaseColor",
    "m_StageCapability": 2,
    "m_Value": {
        "x": 0.5,
        "y": 0.5,
        "z": 0.5
    },
    "m_DefaultValue": {
        "x": 0.0,
        "y": 0.0,
        "z": 0.0
    },
    "m_Labels": [],
    "m_ColorMode": 0,
    "m_DefaultColor": {
        "r": 0.5,
        "g": 0.5,
        "b": 0.5,
        "a": 1.0
    }
}

{
    "m_SGVersion": 0,
    "m_Type": "UnityEditor.ShaderGraph.MaximumNode",
    "m_ObjectId": "8dfbd5bfdf864da8a00a8530445c5d24",
    "m_Group": {
        "m_Id": ""
    },
    "m_Name": "Maximum",
    "m_DrawState": {
        "m_Expanded": true,
        "m_Position": {
            "serializedVersion": "2",
            "x": 67.19999694824219,
            "y": 875.2000122070313,
            "width": 208.0,
            "height": 301.60003662109377
        }
    },
    "m_Slots": [
        {
            "m_Id": "95d8c12af80142a7884d2327bbbd29e5"
        },
        {
            "m_Id": "9cd218b86e2e45baa065d31508aa6533"
        },
        {
            "m_Id": "8491a8379f6f4f77af3ddb291f5b4bdd"
        }
    ],
    "synonyms": [],
    "m_Precision": 0,
    "m_PreviewExpanded": true,
    "m_PreviewMode": 0,
    "m_CustomColors": {
        "m_SerializableColors": []
    }
}

{
    "m_SGVersion": 0,
    "m_Type": "UnityEditor.ShaderGraph.Vector4MaterialSlot",
    "m_ObjectId": "92b9c5357ebf404e8261ee113a95ba94",
    "m_Id": 0,
    "m_DisplayName": "RGBA",
    "m_SlotType": 1,
    "m_Hidden": false,
    "m_ShaderOutputName": "RGBA",
    "m_StageCapability": 2,
    "m_Value": {
        "x": 0.0,
        "y": 0.0,
        "z": 0.0,
        "w": 0.0
    },
    "m_DefaultValue": {
        "x": 0.0,
        "y": 0.0,
        "z": 0.0,
        "w": 0.0
    },
    "m_Labels": []
}

{
    "m_SGVersion": 0,
    "m_Type": "UnityEditor.ShaderGraph.Vector1MaterialSlot",
    "m_ObjectId": "93eceea8d81a426eb7dbb8d99e81aedc",
    "m_Id": 0,
    "m_DisplayName": "Thickness",
    "m_SlotType": 1,
    "m_Hidden": false,
    "m_ShaderOutputName": "Out",
    "m_StageCapability": 3,
    "m_Value": 0.0,
    "m_DefaultValue": 0.0,
    "m_Labels": []
}

{
    "m_SGVersion": 0,
    "m_Type": "UnityEditor.ShaderGraph.DynamicVectorMaterialSlot",
    "m_ObjectId": "95d8c12af80142a7884d2327bbbd29e5",
    "m_Id": 0,
    "m_DisplayName": "A",
    "m_SlotType": 0,
    "m_Hidden": false,
    "m_ShaderOutputName": "A",
    "m_StageCapability": 3,
    "m_Value": {
        "x": 0.0,
        "y": 0.0,
        "z": 0.0,
        "w": 0.0
    },
    "m_DefaultValue": {
        "x": 0.0,
        "y": 0.0,
        "z": 0.0,
        "w": 0.0
    }
}

{
    "m_SGVersion": 0,
    "m_Type": "UnityEditor.ShaderGraph.PropertyNode",
    "m_ObjectId": "9a8b26f4ad614652ba03a737535b19b5",
    "m_Group": {
        "m_Id": ""
    },
    "m_Name": "Property",
    "m_DrawState": {
        "m_Expanded": true,
        "m_Position": {
            "serializedVersion": "2",
            "x": -696.800048828125,
            "y": 670.4000244140625,
            "width": 154.39996337890626,
            "height": 33.5999755859375
        }
    },
    "m_Slots": [
        {
            "m_Id": "880d541cc6fd4169b30f72ed461dbcb9"
        }
    ],
    "synonyms": [],
    "m_Precision": 0,
    "m_PreviewExpanded": true,
    "m_PreviewMode": 0,
    "m_CustomColors": {
        "m_SerializableColors": []
    },
    "m_Property": {
        "m_Id": "0aa23635f12245fabd2128a30fc92b8a"
    }
}

{
    "m_SGVersion": 0,
    "m_Type": "UnityEditor.ShaderGraph.Vector1MaterialSlot",
    "m_ObjectId": "9bb0e581926e461eaf303770ed05520b",
    "m_Id": 6,
    "m_DisplayName": "B",
    "m_SlotType": 1,
    "m_Hidden": false,
    "m_ShaderOutputName": "B",
    "m_StageCapability": 2,
    "m_Value": 0.0,
    "m_DefaultValue": 0.0,
    "m_Labels": []
}

{
    "m_SGVersion": 0,
    "m_Type": "UnityEditor.ShaderGraph.DynamicVectorMaterialSlot",
    "m_ObjectId": "9cd218b86e2e45baa065d31508aa6533",
    "m_Id": 1,
    "m_DisplayName": "B",
    "m_SlotType": 0,
    "m_Hidden": false,
    "m_ShaderOutputName": "B",
    "m_StageCapability": 3,
    "m_Value": {
        "x": 0.0,
        "y": 0.0,
        "z": 0.0,
        "w": 0.0
    },
    "m_DefaultValue": {
        "x": 0.0,
        "y": 0.0,
        "z": 0.0,
        "w": 0.0
    }
}

{
    "m_SGVersion": 0,
    "m_Type": "UnityEditor.ShaderGraph.Vector1MaterialSlot",
    "m_ObjectId": "a497eb96bf7847a891cb76be57506578",
    "m_Id": -1098225947,
    "m_DisplayName": "Threshold",
    "m_SlotType": 0,
    "m_Hidden": false,
    "m_ShaderOutputName": "Vector1_01cdea942b554b428b0996a2a7a484c8",
    "m_StageCapability": 3,
    "m_Value": 0.0,
    "m_DefaultValue": 0.0,
    "m_Labels": []
}

{
    "m_SGVersion": 0,
    "m_Type": "UnityEditor.ShaderGraph.Texture2DMaterialSlot",
    "m_ObjectId": "a5904028664a4defa52fa2cc80420ca6",
    "m_Id": 0,
    "m_DisplayName": "Main Texture",
    "m_SlotType": 1,
    "m_Hidden": false,
    "m_ShaderOutputName": "Out",
    "m_StageCapability": 3,
    "m_BareResource": false
}

{
    "m_SGVersion": 0,
    "m_Type": "UnityEditor.ShaderGraph.PropertyNode",
    "m_ObjectId": "af3d1f996fbd4862a3caf79050ef1383",
    "m_Group": {
        "m_Id": ""
    },
    "m_Name": "Property",
    "m_DrawState": {
        "m_Expanded": true,
        "m_Position": {
            "serializedVersion": "2",
            "x": 443.20001220703127,
            "y": 580.0,
            "width": 107.20001220703125,
            "height": 33.60003662109375
        }
    },
    "m_Slots": [
        {
            "m_Id": "2612f449f8514484bcbf8f9bfe95e3ed"
        }
    ],
    "synonyms": [],
    "m_Precision": 0,
    "m_PreviewExpanded": true,
    "m_PreviewMode": 0,
    "m_CustomColors": {
        "m_SerializableColors": []
    },
    "m_Property": {
        "m_Id": "09a1aff36b474f8392f06f75faa14f8f"
    }
}

{
    "m_SGVersion": 0,
    "m_Type": "UnityEditor.ShaderGraph.Vector2MaterialSlot",
    "m_ObjectId": "b27bd5296534414da1d472d0efffd746",
    "m_Id": 0,
    "m_DisplayName": "UV",
    "m_SlotType": 0,
    "m_Hidden": false,
    "m_ShaderOutputName": "UV",
    "m_StageCapability": 3,
    "m_Value": {
        "x": 0.0,
        "y": 0.0
    },
    "m_DefaultValue": {
        "x": 0.0,
        "y": 0.0
    },
    "m_Labels": []
}

{
    "m_SGVersion": 0,
    "m_Type": "UnityEditor.ShaderGraph.Vector1MaterialSlot",
    "m_ObjectId": "b2cfaea73a9c4fdf9096dca39119ebbe",
    "m_Id": 7,
    "m_DisplayName": "A",
    "m_SlotType": 1,
    "m_Hidden": false,
    "m_ShaderOutputName": "A",
    "m_StageCapability": 2,
    "m_Value": 0.0,
    "m_DefaultValue": 0.0,
    "m_Labels": []
}

{
    "m_SGVersion": 1,
    "m_Type": "UnityEditor.ShaderGraph.Internal.Vector1ShaderProperty",
    "m_ObjectId": "b62420bc77cf4d748e7f3291404690ff",
    "m_Guid": {
        "m_GuidSerialized": "73c314d5-0bd8-4e18-a840-bc77fac25107"
    },
    "m_Name": "ColorStrength",
    "m_DefaultReferenceName": "Vector1_b62420bc77cf4d748e7f3291404690ff",
    "m_OverrideReferenceName": "",
    "m_GeneratePropertyBlock": true,
    "m_Precision": 0,
    "overrideHLSLDeclaration": false,
    "hlslDeclarationOverride": 0,
    "m_Hidden": false,
    "m_Value": 1.0,
    "m_FloatType": 0,
    "m_RangeValues": {
        "x": 0.0,
        "y": 1.0
    }
}

{
    "m_SGVersion": 0,
    "m_Type": "UnityEditor.ShaderGraph.PropertyNode",
    "m_ObjectId": "b7f836c63346430190856b902a0ddf51",
    "m_Group": {
        "m_Id": ""
    },
    "m_Name": "Property",
    "m_DrawState": {
        "m_Expanded": true,
        "m_Position": {
            "serializedVersion": "2",
            "x": 99.99999237060547,
            "y": 47.20000076293945,
            "width": 156.0,
            "height": 33.599998474121097
        }
    },
    "m_Slots": [
        {
            "m_Id": "a5904028664a4defa52fa2cc80420ca6"
        }
    ],
    "synonyms": [],
    "m_Precision": 0,
    "m_PreviewExpanded": true,
    "m_PreviewMode": 0,
    "m_CustomColors": {
        "m_SerializableColors": []
    },
    "m_Property": {
        "m_Id": "7f214cdf3e36462ab8db71f16a5c1197"
    }
}

{
    "m_SGVersion": 1,
    "m_Type": "UnityEditor.ShaderGraph.CustomFunctionNode",
    "m_ObjectId": "b858039404784a33880aa5d626c7ba0a",
    "m_Group": {
        "m_Id": ""
    },
    "m_Name": "ColorSobel (Custom Function)",
    "m_DrawState": {
        "m_Expanded": true,
        "m_Position": {
            "serializedVersion": "2",
            "x": -788.7999267578125,
            "y": 1176.800048828125,
            "width": 223.20001220703126,
            "height": 302.39990234375
        }
    },
    "m_Slots": [
        {
            "m_Id": "b27bd5296534414da1d472d0efffd746"
        },
        {
            "m_Id": "54496ffc3e3f495aa53812104e605c8b"
        },
        {
            "m_Id": "04a224ffc4314a06967fd799ca2d933a"
        }
    ],
    "synonyms": [],
    "m_Precision": 0,
    "m_PreviewExpanded": true,
    "m_PreviewMode": 0,
    "m_CustomColors": {
        "m_SerializableColors": []
    },
    "m_SourceType": 0,
    "m_FunctionName": "ColorSobel",
    "m_FunctionSource": "8584c9c920a68f44992cb9c0e26e1688",
    "m_FunctionBody": "Enter function body here..."
}

{
    "m_SGVersion": 0,
    "m_Type": "UnityEditor.ShaderGraph.Vector1MaterialSlot",
    "m_ObjectId": "b88c8f5777e34edcacb03af57fafe968",
    "m_Id": 0,
    "m_DisplayName": "DepthThickness",
    "m_SlotType": 1,
    "m_Hidden": false,
    "m_ShaderOutputName": "Out",
    "m_StageCapability": 3,
    "m_Value": 0.0,
    "m_DefaultValue": 0.0,
    "m_Labels": []
}

{
    "m_SGVersion": 0,
    "m_Type": "UnityEditor.ShaderGraph.PropertyNode",
    "m_ObjectId": "b9cbcb46e5b34fca839838028a9c250b",
    "m_Group": {
        "m_Id": ""
    },
    "m_Name": "Property",
    "m_DrawState": {
        "m_Expanded": true,
        "m_Position": {
            "serializedVersion": "2",
            "x": -501.60003662109377,
            "y": 1276.0,
            "width": 160.80001831054688,
            "height": 34.4000244140625
        }
    },
    "m_Slots": [
        {
            "m_Id": "345bbb3c57c74858baa55a1023f428d7"
        }
    ],
    "synonyms": [],
    "m_Precision": 0,
    "m_PreviewExpanded": true,
    "m_PreviewMode": 0,
    "m_CustomColors": {
        "m_SerializableColors": []
    },
    "m_Property": {
        "m_Id": "d0fa804e404a4fc294bc3247e8da62da"
    }
}

{
    "m_SGVersion": 0,
    "m_Type": "UnityEditor.ShaderGraph.Vector1MaterialSlot",
    "m_ObjectId": "bb55899b92394ae78d2e3277787e739a",
    "m_Id": 0,
    "m_DisplayName": "ColorStrength",
    "m_SlotType": 1,
    "m_Hidden": false,
    "m_ShaderOutputName": "Out",
    "m_StageCapability": 3,
    "m_Value": 0.0,
    "m_DefaultValue": 0.0,
    "m_Labels": []
}

{
    "m_SGVersion": 0,
    "m_Type": "UnityEditor.ShaderGraph.Vector1MaterialSlot",
    "m_ObjectId": "c239022cd9aa4bbca464bbb2f72b4c28",
    "m_Id": -1098225947,
    "m_DisplayName": "Threshold",
    "m_SlotType": 0,
    "m_Hidden": false,
    "m_ShaderOutputName": "Vector1_01cdea942b554b428b0996a2a7a484c8",
    "m_StageCapability": 3,
    "m_Value": 0.0,
    "m_DefaultValue": 0.0,
    "m_Labels": []
}

{
    "m_SGVersion": 0,
    "m_Type": "UnityEditor.ShaderGraph.Vector1MaterialSlot",
    "m_ObjectId": "cb1960724f4b4ff48e6c4dc987127e5e",
    "m_Id": 0,
    "m_DisplayName": "ColorThreshold",
    "m_SlotType": 1,
    "m_Hidden": false,
    "m_ShaderOutputName": "Out",
    "m_StageCapability": 3,
    "m_Value": 0.0,
    "m_DefaultValue": 0.0,
    "m_Labels": []
}

{
    "m_SGVersion": 0,
    "m_Type": "UnityEditor.ShaderGraph.BlockNode",
    "m_ObjectId": "cb7a11f7da8b4114a4a084b6411d7d56",
    "m_Group": {
        "m_Id": ""
    },
    "m_Name": "SurfaceDescription.BaseColor",
    "m_DrawState": {
        "m_Expanded": true,
        "m_Position": {
            "serializedVersion": "2",
            "x": 0.0,
            "y": 0.0,
            "width": 0.0,
            "height": 0.0
        }
    },
    "m_Slots": [
        {
            "m_Id": "88b4979621714c3093e1b0fd2e021e8f"
        }
    ],
    "synonyms": [],
    "m_Precision": 0,
    "m_PreviewExpanded": true,
    "m_PreviewMode": 0,
    "m_CustomColors": {
        "m_SerializableColors": []
    },
    "m_SerializedDescriptor": "SurfaceDescription.BaseColor"
}

{
    "m_SGVersion": 0,
    "m_Type": "UnityEditor.ShaderGraph.Vector1MaterialSlot",
    "m_ObjectId": "cf10b936948f4fa68ba0aeaae1161449",
    "m_Id": 1,
    "m_DisplayName": "Thickness",
    "m_SlotType": 0,
    "m_Hidden": false,
    "m_ShaderOutputName": "Thickness",
    "m_StageCapability": 3,
    "m_Value": 0.0,
    "m_DefaultValue": 0.0,
    "m_Labels": []
}

{
    "m_SGVersion": 1,
    "m_Type": "UnityEditor.ShaderGraph.Internal.Vector1ShaderProperty",
    "m_ObjectId": "d0fa804e404a4fc294bc3247e8da62da",
    "m_Guid": {
        "m_GuidSerialized": "130ff259-6dc7-452f-bf06-d7fa36655207"
    },
    "m_Name": "ColorThickness",
    "m_DefaultReferenceName": "Vector1_d0fa804e404a4fc294bc3247e8da62da",
    "m_OverrideReferenceName": "",
    "m_GeneratePropertyBlock": true,
    "m_Precision": 0,
    "overrideHLSLDeclaration": false,
    "hlslDeclarationOverride": 0,
    "m_Hidden": false,
    "m_Value": 1.0,
    "m_FloatType": 0,
    "m_RangeValues": {
        "x": 0.0,
        "y": 1.0
    }
}

{
    "m_SGVersion": 0,
    "m_Type": "UnityEditor.ShaderGraph.Texture2DInputMaterialSlot",
    "m_ObjectId": "d8ca4e1d46b74511abbf045be4d1de74",
    "m_Id": 1,
    "m_DisplayName": "Texture",
    "m_SlotType": 0,
    "m_Hidden": false,
    "m_ShaderOutputName": "Texture",
    "m_StageCapability": 3,
    "m_BareResource": false,
    "m_Texture": {
        "m_SerializedTexture": "{\"texture\":{\"instanceID\":0}}",
        "m_Guid": ""
    },
    "m_DefaultType": 0
}

{
    "m_SGVersion": 1,
    "m_Type": "UnityEditor.ShaderGraph.Internal.Vector1ShaderProperty",
    "m_ObjectId": "d901f08ab39c49ea93c305919a6910a6",
    "m_Guid": {
        "m_GuidSerialized": "cec60e0b-cc2f-41f9-bda1-f4d6fce5d6c5"
    },
    "m_Name": "Thickness",
    "m_DefaultReferenceName": "Vector1_d901f08ab39c49ea93c305919a6910a6",
    "m_OverrideReferenceName": "",
    "m_GeneratePropertyBlock": true,
    "m_Precision": 0,
    "overrideHLSLDeclaration": false,
    "hlslDeclarationOverride": 0,
    "m_Hidden": false,
    "m_Value": 0.10000000149011612,
    "m_FloatType": 0,
    "m_RangeValues": {
        "x": 0.0,
        "y": 1.0
    }
}

{
    "m_SGVersion": 0,
    "m_Type": "UnityEditor.ShaderGraph.BlendNode",
    "m_ObjectId": "db5ea85cd0ee4f0f8f82fe8c6d31f390",
    "m_Group": {
        "m_Id": ""
    },
    "m_Name": "Blend",
    "m_DrawState": {
        "m_Expanded": true,
        "m_Position": {
            "serializedVersion": "2",
            "x": 684.0000610351563,
            "y": 512.800048828125,
            "width": 208.00001525878907,
            "height": 360.0
        }
    },
    "m_Slots": [
        {
            "m_Id": "0b90ab23cbc643d59cc1378f9d966928"
        },
        {
            "m_Id": "7ea81361026e44d4bebcc6185234614a"
        },
        {
            "m_Id": "f42e06ed018f4b009a46bda836830b58"
        },
        {
            "m_Id": "f06c5998d5d4428cb0cfabce3eeceafa"
        }
    ],
    "synonyms": [],
    "m_Precision": 0,
    "m_PreviewExpanded": true,
    "m_PreviewMode": 0,
    "m_CustomColors": {
        "m_SerializableColors": []
    },
    "m_BlendMode": 21
}

{
    "m_SGVersion": 0,
    "m_Type": "UnityEditor.ShaderGraph.Vector1MaterialSlot",
    "m_ObjectId": "e285c36f9bf6423c9d292775659747d6",
    "m_Id": 1,
    "m_DisplayName": "Out",
    "m_SlotType": 1,
    "m_Hidden": false,
    "m_ShaderOutputName": "Out",
    "m_StageCapability": 3,
    "m_Value": 0.0,
    "m_DefaultValue": 0.0,
    "m_Labels": []
}

{
    "m_SGVersion": 0,
    "m_Type": "UnityEditor.ShaderGraph.DynamicVectorMaterialSlot",
    "m_ObjectId": "f06c5998d5d4428cb0cfabce3eeceafa",
    "m_Id": 2,
    "m_DisplayName": "Out",
    "m_SlotType": 1,
    "m_Hidden": false,
    "m_ShaderOutputName": "Out",
    "m_StageCapability": 3,
    "m_Value": {
        "x": 0.0,
        "y": 0.0,
        "z": 0.0,
        "w": 0.0
    },
    "m_DefaultValue": {
        "x": 0.0,
        "y": 0.0,
        "z": 0.0,
        "w": 0.0
    }
}

{
    "m_SGVersion": 0,
    "m_Type": "UnityEditor.ShaderGraph.BlockNode",
    "m_ObjectId": "f0bb354d78f043c188c5d7d52c7cb8a0",
    "m_Group": {
        "m_Id": ""
    },
    "m_Name": "VertexDescription.Tangent",
    "m_DrawState": {
        "m_Expanded": true,
        "m_Position": {
            "serializedVersion": "2",
            "x": 0.0,
            "y": 0.0,
            "width": 0.0,
            "height": 0.0
        }
    },
    "m_Slots": [
        {
            "m_Id": "7a9906380e9044f7ae6f059af8ef3b97"
        }
    ],
    "synonyms": [],
    "m_Precision": 0,
    "m_PreviewExpanded": true,
    "m_PreviewMode": 0,
    "m_CustomColors": {
        "m_SerializableColors": []
    },
    "m_SerializedDescriptor": "VertexDescription.Tangent"
}

{
    "m_SGVersion": 0,
    "m_Type": "UnityEditor.ShaderGraph.Vector1MaterialSlot",
    "m_ObjectId": "f42e06ed018f4b009a46bda836830b58",
    "m_Id": 3,
    "m_DisplayName": "Opacity",
    "m_SlotType": 0,
    "m_Hidden": false,
    "m_ShaderOutputName": "Opacity",
    "m_StageCapability": 3,
    "m_Value": 1.0,
    "m_DefaultValue": 1.0,
    "m_Labels": []
}

{
    "m_SGVersion": 0,
    "m_Type": "UnityEditor.ShaderGraph.PropertyNode",
    "m_ObjectId": "f86dae8bf98145c08fc481a6d7d8383e",
    "m_Group": {
        "m_Id": ""
    },
    "m_Name": "Property",
    "m_DrawState": {
        "m_Expanded": true,
        "m_Position": {
            "serializedVersion": "2",
            "x": -1010.39990234375,
            "y": 980.800048828125,
            "width": 131.99998474121095,
            "height": 33.599971771240237
        }
    },
    "m_Slots": [
        {
            "m_Id": "93eceea8d81a426eb7dbb8d99e81aedc"
        }
    ],
    "synonyms": [],
    "m_Precision": 0,
    "m_PreviewExpanded": true,
    "m_PreviewMode": 0,
    "m_CustomColors": {
        "m_SerializableColors": []
    },
    "m_Property": {
        "m_Id": "d901f08ab39c49ea93c305919a6910a6"
    }
}

{
    "m_SGVersion": 0,
    "m_Type": "UnityEditor.ShaderGraph.SamplerStateMaterialSlot",
    "m_ObjectId": "fa56bc74f21f4daa82c8defd0685d3ea",
    "m_Id": 3,
    "m_DisplayName": "Sampler",
    "m_SlotType": 0,
    "m_Hidden": false,
    "m_ShaderOutputName": "Sampler",
    "m_StageCapability": 3,
    "m_BareResource": false
}

